%YAML 1.1
%TAG !u! tag:unity3d.com,2011:
--- !u!74 &7400000
AnimationClip:
  m_ObjectHideFlags: 0
  m_CorrespondingSourceObject: {fileID: 0}
  m_PrefabInstance: {fileID: 0}
  m_PrefabAsset: {fileID: 0}
  m_Name: HookAnim
  serializedVersion: 6
  m_Legacy: 0
  m_Compressed: 0
  m_UseHighQualityCurve: 1
  m_RotationCurves: []
  m_CompressedRotationCurves: []
  m_EulerCurves: []
  m_PositionCurves: []
  m_ScaleCurves: []
  m_FloatCurves:
  - curve:
      serializedVersion: 2
      m_Curve:
      - serializedVersion: 3
        time: 0
        value: 100
        inSlope: 0
        outSlope: 0
        tangentMode: 136
        weightedMode: 0
        inWeight: 0
        outWeight: 0
      m_PreInfinity: 2
      m_PostInfinity: 2
      m_RotationOrder: 4
    attribute: m_SizeDelta.x
    path: 
    classID: 224
    script: {fileID: 0}
  - curve:
      serializedVersion: 2
      m_Curve:
      - serializedVersion: 3
        time: 0
        value: 100
        inSlope: 0
        outSlope: 0
        tangentMode: 136
        weightedMode: 0
        inWeight: 0
        outWeight: 0
      m_PreInfinity: 2
      m_PostInfinity: 2
      m_RotationOrder: 4
    attribute: m_SizeDelta.y
    path: 
    classID: 224
    script: {fileID: 0}
  m_PPtrCurves:
  - curve:
    - time: 0
      value: {fileID: 5955136346219855703, guid: e4bf6764294b320488bbbf49ba9220fd, type: 3}
    - time: 0.083333336
      value: {fileID: 4403369186324300237, guid: e4bf6764294b320488bbbf49ba9220fd, type: 3}
    - time: 0.16666667
      value: {fileID: -8459613494871291779, guid: e4bf6764294b320488bbbf49ba9220fd, type: 3}
    - time: 0.25
      value: {fileID: 3315480217725349763, guid: e4bf6764294b320488bbbf49ba9220fd, type: 3}
    - time: 0.33333334
      value: {fileID: 3627579458522469423, guid: e4bf6764294b320488bbbf49ba9220fd, type: 3}
    - time: 0.41666666
      value: {fileID: -235010285484107615, guid: e4bf6764294b320488bbbf49ba9220fd, type: 3}
    - time: 0.5
      value: {fileID: 7881890853733395386, guid: e4bf6764294b320488bbbf49ba9220fd, type: 3}
    - time: 0.5833333
      value: {fileID: 3948802413749416404, guid: e4bf6764294b320488bbbf49ba9220fd, type: 3}
    - time: 0.6666667
      value: {fileID: 1694552768908128772, guid: e4bf6764294b320488bbbf49ba9220fd, type: 3}
    - time: 0.75
      value: {fileID: -4930111490558685994, guid: e4bf6764294b320488bbbf49ba9220fd, type: 3}
    - time: 0.8333333
      value: {fileID: 8231408191759130372, guid: e4bf6764294b320488bbbf49ba9220fd, type: 3}
    - time: 0.9166667
      value: {fileID: 7474582341128748580, guid: e4bf6764294b320488bbbf49ba9220fd, type: 3}
    - time: 1
      value: {fileID: 8381543728362858923, guid: e4bf6764294b320488bbbf49ba9220fd, type: 3}
    - time: 1.1666666
      value: {fileID: -356880037182895515, guid: e4bf6764294b320488bbbf49ba9220fd, type: 3}
    - time: 2
      value: {fileID: -356880037182895515, guid: e4bf6764294b320488bbbf49ba9220fd, type: 3}
    attribute: m_Sprite
    path: 
    classID: 114
    script: {fileID: 11500000, guid: fe87c0e1cc204ed48ad3b37840f39efc, type: 3}
  m_SampleRate: 60
  m_WrapMode: 0
  m_Bounds:
    m_Center: {x: 0, y: 0, z: 0}
    m_Extent: {x: 0, y: 0, z: 0}
  m_ClipBindingConstant:
    genericBindings:
    - serializedVersion: 2
      path: 0
      attribute: 2015549526
      script: {fileID: 11500000, guid: fe87c0e1cc204ed48ad3b37840f39efc, type: 3}
      typeID: 114
      customType: 0
      isPPtrCurve: 1
    - serializedVersion: 2
      path: 0
      attribute: 1967290853
      script: {fileID: 0}
      typeID: 224
      customType: 28
      isPPtrCurve: 0
    - serializedVersion: 2
      path: 0
      attribute: 38095219
      script: {fileID: 0}
      typeID: 224
      customType: 28
      isPPtrCurve: 0
    pptrCurveMapping:
    - {fileID: 5955136346219855703, guid: e4bf6764294b320488bbbf49ba9220fd, type: 3}
    - {fileID: 4403369186324300237, guid: e4bf6764294b320488bbbf49ba9220fd, type: 3}
    - {fileID: -8459613494871291779, guid: e4bf6764294b320488bbbf49ba9220fd, type: 3}
    - {fileID: 3315480217725349763, guid: e4bf6764294b320488bbbf49ba9220fd, type: 3}
    - {fileID: 3627579458522469423, guid: e4bf6764294b320488bbbf49ba9220fd, type: 3}
    - {fileID: -235010285484107615, guid: e4bf6764294b320488bbbf49ba9220fd, type: 3}
    - {fileID: 7881890853733395386, guid: e4bf6764294b320488bbbf49ba9220fd, type: 3}
    - {fileID: 3948802413749416404, guid: e4bf6764294b320488bbbf49ba9220fd, type: 3}
    - {fileID: 1694552768908128772, guid: e4bf6764294b320488bbbf49ba9220fd, type: 3}
    - {fileID: -4930111490558685994, guid: e4bf6764294b320488bbbf49ba9220fd, type: 3}
    - {fileID: 8231408191759130372, guid: e4bf6764294b320488bbbf49ba9220fd, type: 3}
    - {fileID: 7474582341128748580, guid: e4bf6764294b320488bbbf49ba9220fd, type: 3}
    - {fileID: 8381543728362858923, guid: e4bf6764294b320488bbbf49ba9220fd, type: 3}
    - {fileID: -356880037182895515, guid: e4bf6764294b320488bbbf49ba9220fd, type: 3}
    - {fileID: -356880037182895515, guid: e4bf6764294b320488bbbf49ba9220fd, type: 3}
  m_AnimationClipSettings:
    serializedVersion: 2
    m_AdditiveReferencePoseClip: {fileID: 0}
    m_AdditiveReferencePoseTime: 0
    m_StartTime: 0
    m_StopTime: 2.0166667
    m_OrientationOffsetY: 0
    m_Level: 0
    m_CycleOffset: 0
    m_HasAdditiveReferencePose: 0
    m_LoopTime: 1
    m_LoopBlend: 0
    m_LoopBlendOrientation: 0
    m_LoopBlendPositionY: 0
    m_LoopBlendPositionXZ: 0
    m_KeepOriginalOrientation: 0
    m_KeepOriginalPositionY: 1
    m_KeepOriginalPositionXZ: 0
    m_HeightFromFeet: 0
    m_Mirror: 0
  m_EditorCurves:
  - curve:
      serializedVersion: 2
      m_Curve:
      - serializedVersion: 3
        time: 0
        value: 100
        inSlope: 0
        outSlope: 0
        tangentMode: 136
        weightedMode: 0
        inWeight: 0
        outWeight: 0
      m_PreInfinity: 2
      m_PostInfinity: 2
      m_RotationOrder: 4
    attribute: m_SizeDelta.x
    path: 
    classID: 224
    script: {fileID: 0}
  - curve:
      serializedVersion: 2
      m_Curve:
      - serializedVersion: 3
        time: 0
        value: 100
        inSlope: 0
        outSlope: 0
        tangentMode: 136
        weightedMode: 0
        inWeight: 0
        outWeight: 0
      m_PreInfinity: 2
      m_PostInfinity: 2
      m_RotationOrder: 4
    attribute: m_SizeDelta.y
    path: 
    classID: 224
    script: {fileID: 0}
  m_EulerEditorCurves: []
  m_HasGenericRootTransform: 0
  m_HasMotionFloatCurves: 0
  m_Events: []
