{
    "name": "PlayerControls",
    "maps": [
        {
            "name": "Player",
            "id": "17de1cb1-09a1-415f-9517-e177497f5714",
            "actions": [
                {
                    "name": "Move",
                    "type": "Value",
                    "id": "138c5f4c-478f-4fa0-9015-537c64abb512",
                    "expectedControlType": "Vector2",
                    "processors": "",
                    "interactions": ""
                },
                {
                    "name": "PowerUp",
                    "type": "Button",
                    "id": "7d145b0e-2505-4d24-a65e-e99ddb693a3c",
                    "expectedControlType": "Button",
                    "processors": "",
                    "interactions": ""
                },
                {
                    "name": "Break",
                    "type": "Button",
                    "id": "8a3712ec-735c-42d0-adc6-10a9fd293482",
                    "expectedControlType": "Button",
                    "processors": "",
                    "interactions": ""
                },
                {
                    "name": "LookBehind",
                    "type": "Button",
                    "id": "cf0463ff-bd23-486e-a630-fbff85cf7175",
                    "expectedControlType": "Button",
                    "processors": "",
                    "interactions": ""
                },
                {
                    "name": "ResetPosition",
                    "type": "Button",
                    "id": "93c72bb6-5ac5-4f8a-b412-33ff605a1c0f",
                    "expectedControlType": "Button",
                    "processors": "",
                    "interactions": "Hold"
                },
                {
                    "name": "PointGuns",
                    "type": "Button",
                    "id": "244839a9-70ae-4285-a13e-83325ddf71af",
                    "expectedControlType": "Button",
                    "processors": "",
                    "interactions": ""
                },
                {
                    "name": "MousePosition",
                    "type": "Value",
                    "id": "80034ed5-f823-492a-b566-bf4986d01aac",
                    "expectedControlType": "Vector2",
                    "processors": "",
                    "interactions": ""
                },
                {
                    "name": "Shoot",
                    "type": "Button",
                    "id": "5af5c56f-d20c-4d90-9e8c-b1ef5711d0ae",
                    "expectedControlType": "Button",
                    "processors": "",
                    "interactions": ""
                },
                {
                    "name": "RadioChange",
                    "type": "Value",
                    "id": "48ae3e89-1cbf-423c-b529-83327357e11a",
                    "expectedControlType": "Vector2",
                    "processors": "",
                    "interactions": ""
                },
                {
                    "name": "Pause",
                    "type": "Button",
                    "id": "98c7df45-e3c9-4435-88ef-9d823640262b",
                    "expectedControlType": "Button",
                    "processors": "",
                    "interactions": ""
                }
            ],
            "bindings": [
                {
                    "name": "WASD",
                    "id": "6418e060-97fa-4d88-b0b0-6d424058ef02",
                    "path": "2DVector",
                    "interactions": "",
                    "processors": "",
                    "groups": "",
                    "action": "Move",
                    "isComposite": true,
                    "isPartOfComposite": false
                },
                {
                    "name": "up",
                    "id": "1df6662e-4825-4d04-9bf6-4b23aaed4edd",
                    "path": "<Keyboard>/w",
                    "interactions": "",
                    "processors": "",
                    "groups": "Keyboard",
                    "action": "Move",
                    "isComposite": false,
                    "isPartOfComposite": true
                },
                {
                    "name": "down",
                    "id": "ec97f780-d640-42cb-ae4c-b305e27407bc",
                    "path": "<Keyboard>/s",
                    "interactions": "",
                    "processors": "",
                    "groups": "Keyboard",
                    "action": "Move",
                    "isComposite": false,
                    "isPartOfComposite": true
                },
                {
                    "name": "left",
                    "id": "b3cefe1c-100c-4ad8-bb41-a12787e6ed43",
                    "path": "<Keyboard>/a",
                    "interactions": "",
                    "processors": "",
                    "groups": "Keyboard",
                    "action": "Move",
                    "isComposite": false,
                    "isPartOfComposite": true
                },
                {
                    "name": "right",
                    "id": "1905ff45-547d-4be9-bfeb-02320add8cf1",
                    "path": "<Keyboard>/d",
                    "interactions": "",
                    "processors": "",
                    "groups": "Keyboard",
                    "action": "Move",
                    "isComposite": false,
                    "isPartOfComposite": true
                },
                {
                    "name": "Controller",
                    "id": "86658053-3782-4440-984a-2f2fd3e4bc4d",
                    "path": "2DVector",
                    "interactions": "",
                    "processors": "",
                    "groups": "",
                    "action": "Move",
                    "isComposite": true,
                    "isPartOfComposite": false
                },
                {
                    "name": "up",
                    "id": "51b9acb7-64a3-4741-991a-2838ed3716b5",
                    "path": "<DualShockGamepad>/rightTrigger",
                    "interactions": "",
                    "processors": "",
                    "groups": "Controller",
                    "action": "Move",
                    "isComposite": false,
                    "isPartOfComposite": true
                },
                {
                    "name": "down",
                    "id": "fd2b5355-2719-4c7b-a44b-e231f7b9f8e7",
                    "path": "<DualShockGamepad>/leftTrigger",
                    "interactions": "",
                    "processors": "",
                    "groups": "Controller",
                    "action": "Move",
                    "isComposite": false,
                    "isPartOfComposite": true
                },
                {
                    "name": "left",
                    "id": "80f46115-52d4-4f7f-b7ff-f188f6572a07",
                    "path": "<DualShockGamepad>/leftStick/left",
                    "interactions": "",
                    "processors": "",
                    "groups": "Controller",
                    "action": "Move",
                    "isComposite": false,
                    "isPartOfComposite": true
                },
                {
                    "name": "right",
                    "id": "a24e1b5a-4dec-4530-b673-1377b5916776",
                    "path": "<Gamepad>/leftStick/right",
                    "interactions": "",
                    "processors": "",
                    "groups": "Controller",
                    "action": "Move",
                    "isComposite": false,
                    "isPartOfComposite": true
                },
                {
                    "name": "Controller",
                    "id": "ce3e0d80-fcdd-4510-8f7f-aa72e6effb12",
                    "path": "2DVector",
                    "interactions": "",
                    "processors": "",
                    "groups": "",
                    "action": "Move",
                    "isComposite": true,
                    "isPartOfComposite": false
                },
                {
                    "name": "up",
                    "id": "827eaddc-bbfd-4f51-a5a9-7c0ec43634cf",
                    "path": "<XInputController>/rightTrigger",
                    "interactions": "",
                    "processors": "",
                    "groups": "Controller",
                    "action": "Move",
                    "isComposite": false,
                    "isPartOfComposite": true
                },
                {
                    "name": "down",
                    "id": "c1ba6aca-ae7c-48a2-a395-27f2caa317c6",
                    "path": "<XInputController>/leftTrigger",
                    "interactions": "",
                    "processors": "",
                    "groups": "Controller",
                    "action": "Move",
                    "isComposite": false,
                    "isPartOfComposite": true
                },
                {
                    "name": "left",
                    "id": "5afcb3c1-2c7d-499d-bf94-183136f827ff",
                    "path": "<XInputController>/leftStick/left",
                    "interactions": "",
                    "processors": "",
                    "groups": "Controller",
                    "action": "Move",
                    "isComposite": false,
                    "isPartOfComposite": true
                },
                {
                    "name": "right",
                    "id": "787346b2-bfcf-49ba-9200-d31dbd625cd7",
                    "path": "<XInputController>/leftStick/right",
                    "interactions": "",
                    "processors": "",
                    "groups": "Controller",
                    "action": "Move",
                    "isComposite": false,
                    "isPartOfComposite": true
                },
                {
                    "name": "Controller",
                    "id": "e674c147-df35-412b-b9c3-0d06029df161",
                    "path": "2DVector",
                    "interactions": "",
                    "processors": "",
                    "groups": "",
                    "action": "Move",
                    "isComposite": true,
                    "isPartOfComposite": false
                },
                {
                    "name": "up",
                    "id": "19359a44-d9d2-4a4a-ba02-8625e0eab716",
                    "path": "<Gamepad>/rightTrigger",
                    "interactions": "",
                    "processors": "",
                    "groups": "Controller",
                    "action": "Move",
                    "isComposite": false,
                    "isPartOfComposite": true
                },
                {
                    "name": "down",
                    "id": "a001e865-18a1-49b4-8976-854002681742",
                    "path": "<Gamepad>/leftTrigger",
                    "interactions": "",
                    "processors": "",
                    "groups": "Controller",
                    "action": "Move",
                    "isComposite": false,
                    "isPartOfComposite": true
                },
                {
                    "name": "left",
                    "id": "8a4f02af-2aa1-4df7-be47-c31cd8b7b03b",
                    "path": "<Gamepad>/leftStick/left",
                    "interactions": "",
                    "processors": "",
                    "groups": "Controller",
                    "action": "Move",
                    "isComposite": false,
                    "isPartOfComposite": true
                },
                {
                    "name": "right",
                    "id": "892c1297-aa63-4ae9-b948-522b6a167c63",
                    "path": "<Gamepad>/leftStick/right",
                    "interactions": "",
                    "processors": "",
                    "groups": "Controller",
                    "action": "Move",
                    "isComposite": false,
                    "isPartOfComposite": true
                },
                {
                    "name": "",
                    "id": "a0d9f286-7af9-424b-8a9e-9cfdc93fb294",
                    "path": "<Keyboard>/v",
                    "interactions": "",
                    "processors": "",
                    "groups": "Keyboard",
                    "action": "PowerUp",
                    "isComposite": false,
                    "isPartOfComposite": false
                },
                {
                    "name": "",
                    "id": "7cd8946a-6f19-43e4-a264-d0afc30491c7",
                    "path": "<DualShockGamepad>/buttonEast",
                    "interactions": "",
                    "processors": "",
                    "groups": "Controller",
                    "action": "PowerUp",
                    "isComposite": false,
                    "isPartOfComposite": false
                },
                {
                    "name": "",
                    "id": "b44b868a-60a2-4b28-b561-5eb3354ba3be",
                    "path": "<XInputController>/buttonEast",
                    "interactions": "",
                    "processors": "",
                    "groups": "Controller",
                    "action": "PowerUp",
                    "isComposite": false,
                    "isPartOfComposite": false
                },
                {
                    "name": "",
                    "id": "f5e52865-4ded-4289-8f6e-f2749e1af6b7",
                    "path": "<Gamepad>/buttonEast",
                    "interactions": "",
                    "processors": "",
                    "groups": "Controller",
                    "action": "PowerUp",
                    "isComposite": false,
                    "isPartOfComposite": false
                },
                {
                    "name": "",
                    "id": "79535363-02c3-4417-b146-772cc5dc3034",
                    "path": "<Keyboard>/space",
                    "interactions": "",
                    "processors": "",
                    "groups": "Keyboard",
                    "action": "Break",
                    "isComposite": false,
                    "isPartOfComposite": false
                },
                {
                    "name": "",
                    "id": "7a237803-e06b-484d-86ac-c8fcb6ef309e",
                    "path": "<DualShockGamepad>/buttonSouth",
                    "interactions": "",
                    "processors": "",
                    "groups": "Controller",
                    "action": "Break",
                    "isComposite": false,
                    "isPartOfComposite": false
                },
                {
                    "name": "",
                    "id": "b424cb81-25c5-44e8-8573-331232a09491",
                    "path": "<XInputController>/buttonSouth",
                    "interactions": "",
                    "processors": "",
                    "groups": "Controller",
                    "action": "Break",
                    "isComposite": false,
                    "isPartOfComposite": false
                },
                {
                    "name": "",
                    "id": "255b3516-2a2b-4181-9364-ce4ed6e56e92",
                    "path": "<Gamepad>/buttonSouth",
                    "interactions": "",
                    "processors": "",
                    "groups": "Controller",
                    "action": "Break",
                    "isComposite": false,
                    "isPartOfComposite": false
                },
                {
                    "name": "",
                    "id": "766ed4bc-66dd-47c8-a30a-128c66e7c9c1",
                    "path": "<Keyboard>/c",
                    "interactions": "",
                    "processors": "",
                    "groups": "Keyboard",
                    "action": "LookBehind",
                    "isComposite": false,
                    "isPartOfComposite": false
                },
                {
                    "name": "",
                    "id": "0b2037bf-f711-4f70-a24c-19dc8f83c413",
                    "path": "<DualShockGamepad>/rightStickPress",
                    "interactions": "",
                    "processors": "",
                    "groups": "Controller",
                    "action": "LookBehind",
                    "isComposite": false,
                    "isPartOfComposite": false
                },
                {
                    "name": "",
                    "id": "78527952-2621-467d-abfb-bdcab2d899be",
                    "path": "<XInputController>/rightStickPress",
                    "interactions": "",
                    "processors": "",
                    "groups": "Controller",
                    "action": "LookBehind",
                    "isComposite": false,
                    "isPartOfComposite": false
                },
                {
                    "name": "",
                    "id": "918ceb51-5e5f-4526-a885-d2116e02f636",
                    "path": "<Gamepad>/rightStickPress",
                    "interactions": "",
                    "processors": "",
                    "groups": "Controller",
                    "action": "LookBehind",
                    "isComposite": false,
                    "isPartOfComposite": false
                },
                {
                    "name": "",
                    "id": "50381166-d8fe-41f2-9d4c-9e0e1df2a327",
                    "path": "<Keyboard>/f",
                    "interactions": "",
                    "processors": "",
                    "groups": "Keyboard",
                    "action": "ResetPosition",
                    "isComposite": false,
                    "isPartOfComposite": false
                },
                {
                    "name": "",
                    "id": "bbc605c0-e441-4074-93f6-b9e705544b60",
                    "path": "<DualShockGamepad>/buttonNorth",
                    "interactions": "",
                    "processors": "",
                    "groups": "Controller",
                    "action": "ResetPosition",
                    "isComposite": false,
                    "isPartOfComposite": false
                },
                {
                    "name": "",
                    "id": "d40f4b0c-69b4-423b-b7b3-f42f00749b26",
                    "path": "<XInputController>/buttonNorth",
                    "interactions": "",
                    "processors": "",
                    "groups": "Controller",
                    "action": "ResetPosition",
                    "isComposite": false,
                    "isPartOfComposite": false
                },
                {
                    "name": "",
                    "id": "a2c1cc2d-4fde-4319-9bba-9f0e29d508f7",
                    "path": "<Gamepad>/buttonNorth",
                    "interactions": "",
                    "processors": "",
                    "groups": "Controller",
                    "action": "ResetPosition",
                    "isComposite": false,
                    "isPartOfComposite": false
                },
                {
                    "name": "",
                    "id": "a8812196-cb5d-489d-a628-d8552b5ea69a",
                    "path": "<Mouse>/rightButton",
                    "interactions": "",
                    "processors": "",
                    "groups": "Keyboard",
                    "action": "PointGuns",
                    "isComposite": false,
                    "isPartOfComposite": false
                },
                {
                    "name": "",
                    "id": "ae70d48d-3f22-4b66-be31-85977eecf222",
                    "path": "<DualShockGamepad>/leftShoulder",
                    "interactions": "",
                    "processors": "",
                    "groups": "Controller",
                    "action": "PointGuns",
                    "isComposite": false,
                    "isPartOfComposite": false
                },
                {
                    "name": "",
                    "id": "92820a9f-5b0a-4b81-8b40-503379bdd7c1",
                    "path": "<XInputController>/leftShoulder",
                    "interactions": "",
                    "processors": "",
                    "groups": "Controller",
                    "action": "PointGuns",
                    "isComposite": false,
                    "isPartOfComposite": false
                },
                {
                    "name": "",
                    "id": "86ac9b79-4c16-46b8-9ca9-56a83c88501a",
                    "path": "<Gamepad>/leftShoulder",
                    "interactions": "",
                    "processors": "",
                    "groups": "Controller",
                    "action": "PointGuns",
                    "isComposite": false,
                    "isPartOfComposite": false
                },
                {
                    "name": "",
                    "id": "1896117e-b512-4a35-913c-eafdd183f14b",
                    "path": "<Mouse>/position",
                    "interactions": "",
                    "processors": "",
                    "groups": "Keyboard",
                    "action": "MousePosition",
                    "isComposite": false,
                    "isPartOfComposite": false
                },
                {
                    "name": "",
                    "id": "d34be761-e2fd-41ca-84d9-ff906095278d",
                    "path": "<DualShockGamepad>/rightStick",
                    "interactions": "",
                    "processors": "",
                    "groups": "Controller",
                    "action": "MousePosition",
                    "isComposite": false,
                    "isPartOfComposite": false
                },
                {
                    "name": "",
                    "id": "8f1fea3b-e3af-4e0b-8a5c-cf3d29cf7821",
                    "path": "<XInputController>/rightStick",
                    "interactions": "",
                    "processors": "",
                    "groups": "Controller",
                    "action": "MousePosition",
                    "isComposite": false,
                    "isPartOfComposite": false
                },
                {
                    "name": "",
                    "id": "7f61b3f5-4779-4f02-af74-ceec1efb2bf9",
                    "path": "<Gamepad>/rightStick",
                    "interactions": "",
                    "processors": "",
                    "groups": "Controller",
                    "action": "MousePosition",
                    "isComposite": false,
                    "isPartOfComposite": false
                },
                {
                    "name": "",
                    "id": "3079a07c-8b97-42b3-a7ad-f68b94452394",
                    "path": "<Keyboard>/ctrl",
                    "interactions": "",
                    "processors": "",
                    "groups": "Keyboard",
                    "action": "Shoot",
                    "isComposite": false,
                    "isPartOfComposite": false
                },
                {
                    "name": "",
                    "id": "45ef29a0-ec84-4a65-808c-b394081010d3",
                    "path": "<DualShockGamepad>/rightShoulder",
                    "interactions": "",
                    "processors": "",
                    "groups": "Controller",
                    "action": "Shoot",
                    "isComposite": false,
                    "isPartOfComposite": false
                },
                {
                    "name": "",
                    "id": "2b4d2873-5fc7-40e1-9267-858b2ea4ea36",
                    "path": "<XInputController>/rightShoulder",
                    "interactions": "",
                    "processors": "",
                    "groups": "Controller",
                    "action": "Shoot",
                    "isComposite": false,
                    "isPartOfComposite": false
                },
                {
                    "name": "",
                    "id": "4ed33f1d-44e6-4d06-b778-8bdde1744ff8",
                    "path": "<Gamepad>/rightShoulder",
                    "interactions": "",
                    "processors": "",
                    "groups": "Controller",
                    "action": "Shoot",
                    "isComposite": false,
                    "isPartOfComposite": false
                },
                {
                    "name": "",
                    "id": "9985a9f3-bc27-4994-9889-6cf1768468c9",
                    "path": "<Mouse>/scroll",
                    "interactions": "",
                    "processors": "",
                    "groups": "Keyboard",
                    "action": "RadioChange",
                    "isComposite": false,
                    "isPartOfComposite": false
                },
                {
                    "name": "",
                    "id": "c1576abf-3e7a-419b-88df-84f7500cbd4d",
                    "path": "<DualShockGamepad>/dpad",
                    "interactions": "",
                    "processors": "",
                    "groups": "Controller",
                    "action": "RadioChange",
                    "isComposite": false,
                    "isPartOfComposite": false
                },
                {
                    "name": "",
                    "id": "2451811b-d13b-4184-8723-98e7206418b2",
                    "path": "<XInputController>/dpad",
                    "interactions": "",
                    "processors": "",
                    "groups": "Controller",
                    "action": "RadioChange",
                    "isComposite": false,
                    "isPartOfComposite": false
                },
                {
                    "name": "",
                    "id": "000f5910-af1c-43ed-a8f1-c6b175499cc8",
                    "path": "<Gamepad>/dpad",
                    "interactions": "",
                    "processors": "",
                    "groups": "Controller",
                    "action": "RadioChange",
                    "isComposite": false,
                    "isPartOfComposite": false
                },
                {
                    "name": "",
                    "id": "eafc0b74-9e1b-40ff-a7bc-875ef4fa8c77",
                    "path": "<Keyboard>/escape",
                    "interactions": "",
                    "processors": "",
                    "groups": "Keyboard",
                    "action": "Pause",
                    "isComposite": false,
                    "isPartOfComposite": false
                },
                {
                    "name": "",
                    "id": "864a824b-e420-4c44-989d-98c7669c56a5",
                    "path": "<DualShockGamepad>/start",
                    "interactions": "",
                    "processors": "",
                    "groups": "Controller",
                    "action": "Pause",
                    "isComposite": false,
                    "isPartOfComposite": false
                },
                {
                    "name": "",
                    "id": "2be01def-1724-4a15-be8a-8a82710ad2ea",
                    "path": "<XInputController>/start",
                    "interactions": "",
                    "processors": "",
                    "groups": "Controller",
                    "action": "Pause",
                    "isComposite": false,
                    "isPartOfComposite": false
                },
                {
                    "name": "",
                    "id": "abbc8476-1ee7-43d7-b49a-870fd1b76135",
                    "path": "<Gamepad>/start",
                    "interactions": "",
                    "processors": "",
                    "groups": "Controller",
                    "action": "Pause",
                    "isComposite": false,
                    "isPartOfComposite": false
                }
            ]
        }
    ],
    "controlSchemes": [
        {
            "name": "Keyboard",
            "bindingGroup": "Keyboard",
            "devices": [
                {
                    "devicePath": "<Keyboard>",
                    "isOptional": false,
                    "isOR": false
                }
            ]
        },
        {
            "name": "Controller",
            "bindingGroup": "Controller",
            "devices": [
                {
                    "devicePath": "<DualShockGamepad>",
                    "isOptional": true,
                    "isOR": false
                }
            ]
        }
    ]
}